INDEX VERSION 1.129+/Users/andradafarcas/Documents/UTCN/2nd year/2nd SEM/PT/Labs/PT2017_30424_Farcas_Andrada/.metadata/.plugins/org.eclipse.jdt.core
527849843.index
3157663476.index
3302703152.index
2932191785.index
995153890.index
624708564.index
3227702110.index
1384487945.index
1271342938.index
2465022724.index
1931402068.index
1819685514.index
576073405.index
3712507179.index
2117113611.index
2763200912.index
1833648217.index
2545238116.index
3410066551.index
156905802.index
2578105687.index
3321539481.index
616739193.index
3266567714.index
204893112.index
3358580009.index
2979435446.index
1044104405.index
